"Status","Stream","Project","Scale","countries"
"Active","NCES","China National Parks for People","National","China"
"Active","NCES","LIVES - Phase I","National","Cambodia"
"In Development","NCES","LIVES - Phase 2","Global",""
"Active","NCES","Navigating the Nexus","Regional","Vietnam"
"Active","NCES","Watersheds and Human Health","Global",""
"Active","PBC","Conservation Futures","National","Colombia"
"Active","PBC","Dynamics of the Conservation Estate (DyCE)","Regional","Zimbabwe"
"Active","PBC","Solving the Mystery of Marine Protected Area Performance (MPA)","Global",""
"Active","SPC","Assessing Sustainability Standards","Global",""
"Active","SPC","Leverage Points for Low Footprint Solutions in Cities","Global",""
"Active","SPC","Oil Palm Adaptive Landscape (OPAL)","Regional","Colombia"
"Active","SPC","ConTAcTed: Managing Biodviersity Risks n Global Supply Chains","Global","Brazil"
"Active","SPC","Governing African Growth Corridors","Regional","Tanzania"
"In Development","NCES","Governance of Natural Capital","Global",""
"Active","NCES","China National Parks for People","National",
"Active","NCES","LIVES - Phase I","National",
"In Development","NCES","LIVES - Phase 2","Global",
"Active","NCES","Navigating the Nexus","Regional","Cambodia"
"Active","NCES","Watersheds and Human Health","Global",
"Active","PBC","Conservation Futures","National",
"Active","PBC","Dynamics of the Conservation Estate (DyCE)","Regional",
"Active","PBC","Solving the Mystery of Marine Protected Area Performance (MPA)","Global",
"Active","SPC","Assessing Sustainability Standards","Global",
"Active","SPC","Leverage Points for Low Footprint Solutions in Cities","Global",
"Active","SPC","Oil Palm Adaptive Landscape (OPAL)","Regional","Indonesia"
"Active","SPC","ConTAcTed: Managing Biodviersity Risks n Global Supply Chains","Global",
"Active","SPC","Governing African Growth Corridors","Regional",
"In Development","NCES","Governance of Natural Capital","Global",
